…
1.  *_In 2002, which states were observed at 7
locations?_*

<!-- end list -->

``` r
# Filter by year, group by state, summarize number of locations in each state
brfss_data %>% 
  filter(year == 2002) %>% 
  group_by(locationabbr) %>% 
  summarise(
    number = n()
  )
## # A tibble: 49 x 2
##    locationabbr number
##    <chr>         <int>
##  1 AK                5
##  2 AL                5
##  3 AR                5
##  4 AZ               10
##  5 CA                5
##  6 CO               20
##  7 CT               35
##  8 DC                5
##  9 DE               15
## 10 FL               35
## # ... with 39 more rows
```
…
<!-- end list -->

``` r
# Filter: 1) NY, 2) year (2002, 2006, 2010)
# Group by location 
# Confused about how to get proportion, but do notice the order is the same each time (excellent --> poor)

brfss_data %>% 
  filter(locationabbr == "NY") %>% 
  filter(year == 2002 | year == 2006 | year == 2010) %>% 
  group_by(locationdesc)
## # A tibble: 100 x 5
## # Groups:   locationdesc [9]
##     year locationabbr locationdesc      response  data_value
##    <int> <chr>        <chr>             <fct>          <dbl>
##  1  2010 NY           NY - Bronx County Excellent      17.6 
##  2  2010 NY           NY - Bronx County Very good      25.9 
##  3  2010 NY           NY - Bronx County Good           35.1 
##  4  2010 NY           NY - Bronx County Fair           16.7 
##  5  2010 NY           NY - Bronx County Poor            4.70
##  6  2010 NY           NY - Erie County  Excellent      17.2 
##  7  2010 NY           NY - Erie County  Very good      37.9 
##  8  2010 NY           NY - Erie County  Good           29.6 
##  9  2010 NY           NY - Erie County  Fair           12.7 
## 10  2010 NY           NY - Erie County  Poor            2.50
## # ... with 90 more rows
…
